\relax 
\providecommand\hyper@newdestlabel[2]{}
\catcode `"\active 
\providecommand\HyperFirstAtBeginDocument{\AtBeginDocument}
\HyperFirstAtBeginDocument{\ifx\hyper@anchor\@undefined
\global\let\oldcontentsline\contentsline
\gdef\contentsline#1#2#3#4{\oldcontentsline{#1}{#2}{#3}}
\global\let\oldnewlabel\newlabel
\gdef\newlabel#1#2{\newlabelxx{#1}#2}
\gdef\newlabelxx#1#2#3#4#5#6{\oldnewlabel{#1}{{#2}{#3}}}
\AtEndDocument{\ifx\hyper@anchor\@undefined
\let\contentsline\oldcontentsline
\let\newlabel\oldnewlabel
\fi}
\fi}
\global\let\hyper@last\relax 
\gdef\HyperFirstAtBeginDocument#1{#1}
\providecommand\HyField@AuxAddToFields[1]{}
\providecommand\HyField@AuxAddToCoFields[2]{}
\select@language{dutch}
\@writefile{toc}{\select@language{dutch}}
\@writefile{lof}{\select@language{dutch}}
\@writefile{lot}{\select@language{dutch}}
\@writefile{toc}{\contentsline {section}{\numberline {1}Inleiding}{2}{section.1}}
\@writefile{lof}{\contentsline {figure}{\numberline {1}{\ignorespaces Architectuur van TEACHR}}{3}{figure.1}}
\newlabel{fig:1}{{1}{3}{Architectuur van TEACHR}{figure.1}{}}
\@writefile{toc}{\contentsline {section}{\numberline {2}Architectuur}{3}{section.2}}
\@writefile{toc}{\contentsline {subsection}{\numberline {2.1}Node.js}{3}{subsection.2.1}}
\@writefile{toc}{\contentsline {subsection}{\numberline {2.2}Dependencies}{4}{subsection.2.2}}
\@writefile{toc}{\contentsline {subsubsection}{\numberline {2.2.1}Express}{4}{subsubsection.2.2.1}}
\@writefile{toc}{\contentsline {subsubsection}{\numberline {2.2.2}EJS}{4}{subsubsection.2.2.2}}
\@writefile{toc}{\contentsline {subsubsection}{\numberline {2.2.3}Mapbox}{4}{subsubsection.2.2.3}}
\@writefile{toc}{\contentsline {subsubsection}{\numberline {2.2.4}MongoDB}{5}{subsubsection.2.2.4}}
\@writefile{toc}{\contentsline {subsubsection}{\numberline {2.2.5}Passport}{5}{subsubsection.2.2.5}}
\@writefile{toc}{\contentsline {subsection}{\numberline {2.3}Site lanceren}{5}{subsection.2.3}}
\@writefile{toc}{\contentsline {section}{\numberline {3}Gebruikersinterface}{6}{section.3}}
\@writefile{toc}{\contentsline {subsection}{\numberline {3.1}Front-End Framework}{6}{subsection.3.1}}
\@writefile{toc}{\contentsline {subsection}{\numberline {3.2}Home page}{6}{subsection.3.2}}
\@writefile{toc}{\contentsline {subsection}{\numberline {3.3}Settings}{6}{subsection.3.3}}
\@writefile{toc}{\contentsline {subsection}{\numberline {3.4}Reviews}{6}{subsection.3.4}}
\@writefile{toc}{\contentsline {section}{\numberline {4}Functionaliteiten}{6}{section.4}}
\@writefile{toc}{\contentsline {paragraph}{HTML 5 \newline  }{6}{section.4}}
\@writefile{toc}{\contentsline {paragraph}{AJAX \newline  }{7}{section.4}}
\@writefile{toc}{\contentsline {paragraph}{Map \newline  }{7}{section.4}}
\@writefile{toc}{\contentsline {section}{\numberline {5}API}{7}{section.5}}
\@writefile{toc}{\contentsline {paragraph}{Courses \newline  }{7}{section.5}}
\@writefile{toc}{\contentsline {paragraph}{Teacher lookup \newline  }{7}{section.5}}
\@writefile{toc}{\contentsline {paragraph}{Reviews \newline  }{8}{section.5}}
\@writefile{toc}{\contentsline {paragraph}{Score \newline  }{8}{section.5}}
\@writefile{toc}{\contentsline {paragraph}{insertToDb \newline  }{8}{section.5}}
\@writefile{toc}{\contentsline {paragraph}{updateTeacher \newline  }{8}{section.5}}
